…
```r
trainWords <- train %>%
  unnest_tokens(word, cleanedtext) %>%
  count(toxic,severe_toxic,obscene,threat,insult,identity_hate,word) %>%
  ungroup()

total_words <- trainWords %>% 
  group_by(toxic,severe_toxic,obscene,threat,insult,identity_hate) %>% 
  summarize(total = sum(n))

total_words
```

```
## # A tibble: 41 x 7
## # Groups:   toxic, severe_toxic, obscene, threat, insult [?]
##    toxic severe_toxic obscene threat insult identity_hate   total
##    <dbl>        <dbl>   <dbl>  <dbl>  <dbl>         <dbl>   <int>
##  1    0.           0.      0.     0.     0.            0. 4290726
##  2    0.           0.      0.     0.     0.            1.    2167
##  3    0.           0.      0.     0.     1.            0.    7422
##  4    0.           0.      0.     0.     1.            1.     813
##  5    0.           0.      0.     1.     0.            0.     286
##  6    0.           0.      0.     1.     1.            0.     563
##  7    0.           0.      1.     0.     0.            0.   12643
##  8    0.           0.      1.     0.     0.            1.      66
##  9    0.           0.      1.     0.     1.            0.    6192
## 10    0.           0.      1.     0.     1.            1.     563
## # ... with 31 more rows
```
…
